Data Manipulation
…
Missing data

mean(starwars$height, na.rm = TRUE)

## [1] 174.358

starwars %>% 
  dplyr::select(name, gender, hair_color, height)

## # A tibble: 87 x 4
##    name               gender    hair_color    height
##    <chr>              <chr>     <chr>          <int>
##  1 Luke Skywalker     masculine blond            172
##  2 C-3PO              masculine <NA>             167
##  3 R2-D2              masculine <NA>              96
##  4 Darth Vader        masculine none             202
##  5 Leia Organa        feminine  brown            150
##  6 Owen Lars          masculine brown, grey      178
##  7 Beru Whitesun lars feminine  brown            165
##  8 R5-D4              masculine <NA>              97
##  9 Biggs Darklighter  masculine black            183
## 10 Obi-Wan Kenobi     masculine auburn, white    182
## # i 77 more rows

# not recommended because we do not know what we miss
starwars %>% 
  dplyr::select(name, gender, hair_color, height) %>% 
  na.omit()

## # A tibble: 73 x 4
##    name               gender    hair_color    height
##    <chr>              <chr>     <chr>          <int>
##  1 Luke Skywalker     masculine blond            172
##  2 Darth Vader        masculine none             202
##  3 Leia Organa        feminine  brown            150
##  4 Owen Lars          masculine brown, grey      178
##  5 Beru Whitesun lars feminine  brown            165
##  6 Biggs Darklighter  masculine black            183
##  7 Obi-Wan Kenobi     masculine auburn, white    182
##  8 Anakin Skywalker   masculine blond            188
##  9 Wilhuff Tarkin     masculine auburn, grey     180
## 10 Chewbacca          masculine brown            228
## # i 63 more rows
…
##    Names Age
## 1  Peter  22
## 2   John  33
## 3 Andrew  44

Recoding Variables

starwars %>% 
  dplyr::select(name, gender) %>% 
  mutate(gender_coded = recode(gender,
                         "masculine" = 1,
                         "feminine" = 2))

## # A tibble: 87 x 3
##    name               gender    gender_coded
##    <chr>              <chr>            <dbl>
##  1 Luke Skywalker     masculine            1
##  2 C-3PO              masculine            1
##  3 R2-D2              masculine            1
##  4 Darth Vader        masculine            1
##  5 Leia Organa        feminine             2
##  6 Owen Lars          masculine            1
##  7 Beru Whitesun lars feminine             2
##  8 R5-D4              masculine            1
##  9 Biggs Darklighter  masculine            1
## 10 Obi-Wan Kenobi     masculine            1
## # i 77 more rows
…
Recode data

size_of_brain %>% 
  mutate(brain_size = recode(brain_size,
                             "large" = 1,
                             "small" = 2))

## # A tibble: 56 x 3
##    name                       brainwt brain_size
##    <chr>                        <dbl>      <dbl>
##  1 Owl monkey                 0.0155           1
##  2 Greater short-tailed shrew 0.00029          2
##  3 Cow                        0.423            1
##  4 Dog                        0.07             1
##  5 Roe deer                   0.0982           1
##  6 Goat                       0.115            1
##  7 Guinea pig                 0.0055           2
##  8 Chinchilla                 0.0064           2
##  9 Star-nosed mole            0.001            2
## 10 African giant pouched rat  0.0066           2
## # i 46 more rows
…
Separate and Unite

#separate year into century and year
gapminder1 <- gapminder %>% 
  separate(col = year,
           into = c("century", "year"),
           sep = 2)

#combine century and year
gapminder1 %>% 
  unite(col = date,
        century, year,
        sep = "")

## # A tibble: 1,704 x 6
##    country     continent date  lifeExp      pop gdpPercap
##    <fct>       <fct>     <chr>   <dbl>    <int>     <dbl>
##  1 Afghanistan Asia      1952     28.8  8425333      779.
##  2 Afghanistan Asia      1957     30.3  9240934      821.
##  3 Afghanistan Asia      1962     32.0 10267083      853.
##  4 Afghanistan Asia      1967     34.0 11537966      836.
##  5 Afghanistan Asia      1972     36.1 13079460      740.
##  6 Afghanistan Asia      1977     38.4 14880372      786.
##  7 Afghanistan Asia      1982     39.9 12881816      978.
##  8 Afghanistan Asia      1987     40.8 13867957      852.
##  9 Afghanistan Asia      1992     41.7 16317921      649.
## 10 Afghanistan Asia      1997     41.8 22227415      635.
## # i 1,694 more rows
…
